[
  {
    "title": "Small",
    "price": 9.99,
    "features": [
      "Lorem ipsum dolor sit amet, consectetur adipiscing elit.",
      "Etiam quis massa vitae justo vulputate lobortis ut nec nibh.",
      "Donec porttitor est at elit convallis auctor in ac eros.",
      "Vivamus at metus a nisi consectetur maximus nec eu erat."
    ]
  },
  {
    "title": "Medium",
    "price": 12.99,
    "features": [
      "Lorem ipsum dolor sit amet, consectetur adipiscing elit.",
      "Etiam quis massa vitae justo vulputate lobortis ut nec nibh.",
      "Donec porttitor est at elit convallis auctor in ac eros.",
      "Vivamus at metus a nisi consectetur maximus nec eu erat."
    ],
    "best": true
  },
  {
    "title": "Large",
    "price": 19.99,
    "features": [
      "Lorem ipsum dolor sit amet, consectetur adipiscing elit.",
      "Etiam quis massa vitae justo vulputate lobortis ut nec nibh.",
      "Donec porttitor est at elit convallis auctor in ac eros.",
      "Vivamus at metus a nisi consectetur maximus nec eu erat."
    ]
  }
]
